{
  "Longtone": {
    "description" : "Single long tone",
    "settings" : {
        "Longtone": {
          "datatype": "number",
          "inputtype": "text",
          "unit": "Hz",
          "description": "Longtone Frequency"
        },
        "Longtonelength": {
          "datatype": "number",
          "inputtype": "text",
          "unit": "seconds",
          "description": "Longtone durration required to trigger alert"
        },
        "Description": {
          "datatype": "string",
          "inputtype": "text",
          "unit": "",
          "description": "Tone Description (Used in Text Messages)"
        },
        "ignore_after": {
          "datatype": "number",
          "inputtype": "text",
          "unit": "seconds",
          "description": "time period (in seconds) that a tone set will be ignored after a valid detection of the same tone set.  This is intended to eliminate multiple emails in jurisdictions where the tones are set off multiple times for the same page."
        },
        "record_delay":{
          "datatype": "number",
          "inputtype": "text",
          "unit": "seconds",
          "description": "Number of seconds to wait to record after a valid tone set is detected"
        },
        "playback_during_record": {
          "datatype": "boolean",
          "inputtype": "checkbox",
          "unit": "",
          "description": "Play to speakers after tone is triggered while recording"
        }
    }
  },
  "Tone": {
    "description" : "Two tones",
    "settings" : {
        "Atone": {
          "datatype": "number",
          "inputtype": "text",
          "unit": "Hz",
          "description": "First Tone Frequency"
        },
        "Atonelength": {
          "datatype": "number",
          "inputtype": "text",
          "unit": "seconds",
          "description": "First tone duration required to trigger alert"
        },
        "Btone": {
          "datatype": "number",
          "inputtype": "text",
          "unit": "Hz",
          "description": "Second Tone Frequency"
        },
        "Btonelength": {
          "datatype": "number",
          "inputtype": "text",
          "unit": "seconds",
          "description": "Second duration required to trigger alert"
        },

        "Description": {
          "datatype": "string",
          "inputtype": "text",
          "unit": "",
          "description": "Tone Description (Used in Text Messages)"
        },
        "ignore_after": {
          "datatype": "number",
          "inputtype": "text",
          "unit": "seconds",
          "description": "time period (in seconds) that a tone set will be ignored after a valid detection of the same tone set.  This is intended to eliminate multiple emails in jurisdictions where the tones are set off multiple times for the same page."
        },
        "record_delay":{
          "datatype": "number",
          "inputtype": "text",
          "unit": "seconds",
          "description": "Number of seconds to wait to record after a valid tone set is detected"
        },
        "playback_during_record": {
          "datatype": "boolean",
          "inputtype": "checkbox",
          "unit": "",
          "description": "Play to speakers after tone is triggered while recording"
        }
    }
  }

}
